Checking whether there is an H2O instance running at http://localhost:54321 ..... not found.
Attempting to start a local H2O server...
  Java Version: openjdk version "11.0.6" 2020-01-14; OpenJDK Runtime Environment (build 11.0.6+10-post-Ubuntu-1ubuntu118.04.1); OpenJDK 64-Bit Server VM (build 11.0.6+10-post-Ubuntu-1ubuntu118.04.1, mixed mode, sharing)
  Starting server from /root/anaconda3/lib/python3.5/site-packages/h2o/backend/bin/h2o.jar
  Ice root: /tmp/tmpzxq7zo6d
  JVM stdout: /tmp/tmpzxq7zo6d/h2o_unknownUser_started_from_python.out
  JVM stderr: /tmp/tmpzxq7zo6d/h2o_unknownUser_started_from_python.err
  Server is running at http://127.0.0.1:54323
Connecting to H2O server at http://127.0.0.1:54323 ... successful.
Warning: Your H2O cluster version is too old (6 months and 29 days)! Please download and install the latest version from http://h2o.ai/download/
--------------------------  ---------------------------------------------------
H2O cluster uptime:         03 secs
H2O cluster timezone:       Etc/UTC
H2O data parsing timezone:  UTC
H2O cluster version:        3.26.0.1
H2O cluster version age:    6 months and 29 days !!!
H2O cluster name:           H2O_from_python_unknownUser_qzj5jz
H2O cluster total nodes:    1
H2O cluster free memory:    2.316 Gb
H2O cluster total cores:    6
H2O cluster allowed cores:  6
H2O cluster status:         accepting new members, healthy
H2O connection url:         http://127.0.0.1:54323
H2O connection proxy:
H2O internal security:      False
H2O API Extensions:         Amazon S3, XGBoost, Algos, AutoML, Core V3, Core V4
Python version:             3.5.6 final
--------------------------  ---------------------------------------------------
Parse progress: |█████████████████████████████████████████████████████████| 100%
drf prediction progress: |████████████████████████████████████████████████| 100%
0
1
2
3
4
20.561061
Se procesaron 5 de los cuales 1 detonaron evento en facebook
2020-02-14 21:57:23.176872
H2O session _sid_8eb9 closed.
